<!-- Generated by IcoMoon.io -->
<svg version="1.1" xmlns="http://www.w3.org/2000/svg" width="512" height="512" viewBox="0 0 512 512">
<title></title>
<g id="icomoon-ignore">
</g>
<path d="M421.82 149.53l-165.801 146.104-165.838-146.106c-6.603-5.817-16.668-5.178-22.484 1.421-5.813 6.601-5.181 16.666 1.423 22.484l176.37 155.386c3.010 2.651 6.771 3.976 10.531 3.976s7.523-1.325 10.533-3.978l176.334-155.386c6.599-5.816 7.234-15.883 1.419-22.484-5.82-6.595-15.883-7.232-22.486-1.417z"></path>
<path d="M464.212 81.834h-416.423c-26.349 0-47.788 21.437-47.788 47.789v252.753c0 26.352 21.439 47.788 47.788 47.788h416.423c26.349 0 47.788-21.437 47.788-47.788v-252.754c0-26.35-21.439-47.788-47.788-47.788zM480.141 382.375c0 8.783-7.145 15.93-15.93 15.93h-416.423c-8.785 0-15.93-7.147-15.93-15.93v-252.754c0-8.782 7.145-15.93 15.93-15.93h416.423c8.784 0 15.93 7.147 15.93 15.93v252.754z"></path>
</svg>
