<!-- Generated by IcoMoon.io -->
<svg version="1.1" xmlns="http://www.w3.org/2000/svg" width="512" height="512" viewBox="0 0 512 512">
<title></title>
<g id="icomoon-ignore">
</g>
<path d="M0 51.2c0-28.365 22.835-51.2 51.2-51.2h409.6c28.365 0 51.2 22.835 51.2 51.2v409.6c0 28.365-22.835 51.2-51.2 51.2h-409.6c-28.365 0-51.2-22.835-51.2-51.2v-409.6zM344.896 92.192h-50.112c-61.425 0-81.696 28.178-81.696 76.512v38.272h-40.352v57.408h40.352v172.16h74.432v-172.16h50.56l6.816-57.408h-57.376v-34.144c0-15.423 3.385-23.232 27.328-23.232h30.048v-57.408z"></path>
</svg>
