<!-- Generated by IcoMoon.io -->
<svg version="1.1" xmlns="http://www.w3.org/2000/svg" width="512" height="512" viewBox="0 0 512 512">
<title></title>
<g id="icomoon-ignore">
</g>
<path fill="#000" d="M380.306 503.172c7.505 7.291 14.603 8.828 19.236 8.828 10.667 0 22.161-8.226 22.151-26.312v-450c0-19.677-16.010-35.688-35.688-35.688h-260.010c-19.677 0-35.688 16.011-35.688 35.688v450c0 6.269 1.365 11.656 4.032 16.010 3.978 6.452 10.742 10.301 18.139 10.301 4.635 0 11.731-1.526 19.226-8.828l121.538-118.237c1.893-1.849 3.656-1.849 5.548 0l121.516 118.236zM281.285 361.806c-6.764-6.57-15.731-10.194-25.269-10.194-9.548 0-18.526 3.623-25.268 10.193l-108.172 105.183v-431.301c0-1.861 1.57-3.43 3.43-3.43h260.021c1.861 0 3.43 1.57 3.43 3.43l-0.054 431.312-108.118-105.194z"></path>
<path stroke-linejoin="miter" stroke-linecap="butt" stroke-miterlimit="4" stroke-width="1.4526" stroke="#000" fill="#000" d="M122.396 250.983v-219.893h134.186c106.014 0 134.331 0.382 134.876 1.819 0.38 1.001 0.522 99.98 0.317 219.954l-0.373 218.136-54.822-53.71c-60.327-59.103-64.166-62.128-78.957-62.236-16.939-0.123-16.418-0.541-94.565 75.998l-40.662 39.825z"></path>
</svg>
