<!-- Generated by IcoMoon.io -->
<svg version="1.1" xmlns="http://www.w3.org/2000/svg" width="512" height="512" viewBox="0 0 512 512">
<title></title>
<g id="icomoon-ignore">
</g>
<path d="M512 393.72c-0.070 6.877-5.666 12.418-12.543 12.418h-91.877l-20.507 88.866c-1.313 5.695-6.385 9.726-12.229 9.721-3.529 0.007-6.9-1.471-9.283-4.075l-85.917-94.45h-170.333c-6.927 0-12.543-5.615-12.543-12.541v-89.683h-84.225c-6.927 0-12.543-5.615-12.543-12.543v-271.615c0-6.927 5.615-12.543 12.543-12.543h390.146c6.926 0 12.543 5.616 12.543 12.543v89.744h84.224c6.926 0 12.543 5.615 12.543 12.543v271.615zM96.767 122.105c-0.016-3.338 1.297-6.544 3.651-8.909s5.554-3.696 8.891-3.696h280.834v-77.138h-365.060v246.531h71.683v-156.786zM397.545 381.176h89.368v-246.529h-365.060v246.529h163.372c3.529-0.007 6.897 1.474 9.28 4.077l73.502 80.902 17.308-75.259c1.316-5.692 6.388-9.723 12.229-9.721z"></path>
<path d="M179.614 212.162h159.921v25.085h-159.921v-25.085z"></path>
<path d="M179.614 281.147h253.992v25.087h-253.993v-25.087z"></path>
</svg>
