<!-- Generated by IcoMoon.io -->
<svg version="1.1" xmlns="http://www.w3.org/2000/svg" width="512" height="512" viewBox="0 0 512 512">
<title></title>
<g id="icomoon-ignore">
</g>
<path d="M256 0.001c-80.809 0-146.286 65.534-146.286 146.376v219.248c0 80.88 65.494 146.376 146.286 146.376 80.81 0 146.286-65.534 146.286-146.376v-219.248c0-80.88-65.495-146.376-146.286-146.376zM134.095 365.623v-219.248c0-67.385 54.571-121.995 121.905-121.995 67.337 0 121.904 54.591 121.904 121.995v219.248c0 67.386-54.571 121.995-121.904 121.995-67.338 0-121.904-54.591-121.904-121.995z"></path>
<path d="M243.81 85.334v48.762c0 6.732 5.458 12.19 12.19 12.19s12.19-5.458 12.19-12.19v-48.762c0-6.733-5.457-12.191-12.19-12.191s-12.19 5.457-12.19 12.191z"></path>
</svg>
