<!-- Generated by IcoMoon.io -->
<svg version="1.1" xmlns="http://www.w3.org/2000/svg" width="512" height="512" viewBox="0 0 512 512">
<title></title>
<g id="icomoon-ignore">
</g>
<path d="M497.877 50.565c-20.312 12.339-42.808 21.294-66.741 26.148-19.154-20.974-46.433-34.044-76.648-34.044-58.023 0-105.050 48.259-105.050 107.729 0 8.436 0.938 16.661 2.72 24.542-87.284-4.494-164.683-47.393-216.489-112.57-9.046 15.88-14.201 34.395-14.201 54.151 0 37.386 18.559 70.365 46.713 89.661-17.216-0.587-33.401-5.441-47.57-13.53v1.358c0 52.189 36.214 95.719 84.237 105.654-8.793 2.436-18.073 3.776-27.666 3.776-6.784 0-13.342-0.699-19.78-1.958 13.374 42.788 52.15 73.949 98.097 74.844-35.933 28.879-81.241 46.091-130.435 46.091-8.486 0-16.843-0.521-25.063-1.468 46.496 30.543 101.678 48.38 161.013 48.38 193.196 0 298.838-164.153 298.838-306.521l-0.341-13.968c20.591-15.123 38.428-34.097 52.49-55.69-18.844 8.567-39.057 14.387-60.304 16.977 21.686-13.335 38.308-34.462 46.182-59.565z"></path>
</svg>
