<!-- Generated by IcoMoon.io -->
<svg version="1.1" xmlns="http://www.w3.org/2000/svg" width="512" height="512" viewBox="0 0 512 512">
<title></title>
<g id="icomoon-ignore">
</g>
<path d="M492.044 104.531c-18.481-22.297-52.605-31.389-117.767-31.389h-236.555c-66.656 0-101.359 9.679-119.77 33.415-17.951 23.148-17.951 57.255-17.951 104.463v89.962c0 91.436 21.299 137.875 137.721 137.875h236.555c56.51 0 87.825-8.036 108.084-27.702 20.777-20.188 29.64-53.134 29.64-110.173v-89.963c0-49.787-1.387-84.088-19.956-106.49zM328.705 268.419l-107.417 56.981c-2.402 1.273-5.028 1.906-7.65 1.906-2.97 0-5.933-0.815-8.557-2.433-4.941-3.036-7.958-8.469-7.958-14.331v-113.591c0-5.866 3.007-11.288 7.94-14.334 4.935-3.032 11.070-3.249 16.189-0.549l107.418 56.621c5.464 2.877 8.897 8.596 8.906 14.846 0.005 6.249-3.411 11.995-8.87 14.884z"></path>
</svg>
