{
  "mainNav": {
    "Специалисты": {
      "name": "Специалисты",
      "href": "",
      "drop": true
    },
    "Проекты": {
      "name": "Проекты",
      "href": "",
      "drop": "",
      "btn": true
    },
    "Контакты": {
      "name": "Контакты",
      "href": "",
      "drop": ""
    },
    "СТАТЬИ": {
      "name": "СТАТЬИ",
      "href": "",
      "drop": ""
    }
  }
}