<svg width="61" height="61" viewBox="0 0 61 61" fill="none" xmlns="http://www.w3.org/2000/svg">
<path fill-rule="evenodd" clip-rule="evenodd" d="M39.5181 45.832C40.3189 45.709 41.0612 45.3388 41.6411 44.773C42.6321 43.782 43.4851 41.739 41.9141 37.642C41.7913 37.3013 41.494 37.0536 41.1367 36.9944C40.7795 36.9352 40.4182 37.0738 40.1921 37.3567C39.966 37.6396 39.9106 38.0226 40.0471 38.358C40.9591 40.738 41.0251 42.558 40.2271 43.358C39.2591 44.324 36.8481 44.022 33.7761 42.552C29.6633 40.4164 25.9249 37.6267 22.7071 34.292C14.8741 26.458 11.6421 18.771 13.6411 16.772C14.279 16.2682 15.1081 16.0747 15.9031 16.244C16.4446 16.2838 16.919 15.8841 16.9717 15.3437C17.0244 14.8032 16.6361 14.3195 16.0971 14.254C14.7067 14.0079 13.2802 14.4134 12.2271 15.354C8.56309 19.017 14.1641 28.572 21.2931 35.702C24.6707 39.1972 28.5955 42.1185 32.9131 44.351C33.695 44.7254 34.5007 45.0478 35.3251 45.316L28.2201 48.01C18.7326 44.4029 11.9027 35.9919 10.3201 25.966C10.2345 25.4203 9.72274 25.0474 9.17709 25.133C8.63143 25.2186 8.25848 25.7303 8.34409 26.276C8.50109 27.276 8.71109 28.276 8.96809 29.254C11.2708 37.9788 17.3359 45.2269 25.5181 49.032L13.8241 53.457C13.7705 53.3675 13.703 53.2872 13.6241 53.219C10.6521 50.8329 8.78733 47.3335 8.46409 43.536L8.00009 37.917C7.98217 37.6501 7.85684 37.402 7.65275 37.2292C7.44865 37.0563 7.18322 36.9737 6.91709 37C6.65152 37.0211 6.40535 37.1473 6.2332 37.3506C6.06105 37.5539 5.97714 37.8176 6.00009 38.083L6.47209 43.7C6.82364 47.759 8.7171 51.5291 11.7631 54.235L3.42109 57.393L4.92109 51.237C5.00576 50.8897 4.89874 50.5237 4.64034 50.2767C4.38193 50.0297 4.01141 49.9394 3.66834 50.0397C3.32526 50.14 3.06176 50.4157 2.97709 50.763L1.02609 58.763C0.937661 59.1238 1.05653 59.5039 1.33477 59.75C1.61301 59.9961 2.00476 60.0678 2.35209 59.936L39.3521 45.936C39.4109 45.9073 39.4666 45.8724 39.5181 45.832Z" fill="black"/>
<path fill-rule="evenodd" clip-rule="evenodd" d="M34.4081 33.418L30.8351 34.018C30.3019 34.1204 29.9479 34.6296 30.0375 35.1651C30.1271 35.7005 30.6276 36.0667 31.1651 35.99L34.7371 35.395C40.0849 34.5059 45.5725 35.0391 50.6491 36.941C50.7618 36.9809 50.8806 37.0009 51.0001 37C51.4842 37.0008 51.8994 36.6547 51.9857 36.1783C52.0721 35.7019 51.8047 35.2321 51.3511 35.063C45.9452 33.0392 40.1023 32.4719 34.4081 33.418Z" fill="black"/>
<path fill-rule="evenodd" clip-rule="evenodd" d="M32.0999 30.43C32.2139 30.6696 32.4184 30.854 32.6684 30.9427C32.9184 31.0314 33.1934 31.0171 33.4329 30.903L54.4329 20.903C54.7555 20.7494 54.9716 20.4353 54.9999 20.0791C55.0282 19.7229 54.8643 19.3787 54.5699 19.1761C54.2756 18.9736 53.8955 18.9434 53.5729 19.097L32.5729 29.097C32.3334 29.211 32.149 29.4156 32.0603 29.6656C31.9715 29.9156 31.9858 30.1906 32.0999 30.43Z" fill="black"/>
<path fill-rule="evenodd" clip-rule="evenodd" d="M20.9219 28.923C21.0435 28.9741 21.1741 29.0002 21.3059 29C21.7095 29 22.0735 28.7574 22.2289 28.385L23.6839 24.9C26.0808 19.1739 26.6399 12.8446 25.2839 6.78697C25.2119 6.43259 24.9542 6.14469 24.6099 6.03405C24.2656 5.92342 23.8884 6.00728 23.6234 6.25338C23.3585 6.49948 23.247 6.86946 23.3319 7.22097C24.5977 12.8759 24.076 18.7843 21.8389 24.13L20.3849 27.619C20.1748 28.1274 20.4147 28.71 20.9219 28.923Z" fill="black"/>
<path fill-rule="evenodd" clip-rule="evenodd" d="M56 42C54.3431 42 53 40.6569 53 39C53 37.3431 54.3431 36 56 36C57.6569 36 59 37.3431 59 39C59 40.6569 57.6569 42 56 42ZM56 40C56.5523 40 57 39.5523 57 39C57 38.4477 56.5523 38 56 38C55.4477 38 55 38.4477 55 39C55 39.5523 55.4477 40 56 40Z" fill="black"/>
<path fill-rule="evenodd" clip-rule="evenodd" d="M32 8C33.6569 8 35 9.34315 35 11C35 12.6569 33.6569 14 32 14C30.3431 14 29 12.6569 29 11C29 9.34315 30.3431 8 32 8ZM32 10C31.4477 10 31 10.4477 31 11C31 11.5523 31.4477 12 32 12C32.5523 12 33 11.5523 33 11C33 10.4477 32.5523 10 32 10Z" fill="black"/>
<path fill-rule="evenodd" clip-rule="evenodd" d="M23 4C24.1046 4 25 3.10457 25 2C25 0.89543 24.1046 0 23 0C21.8954 0 21 0.89543 21 2C21 3.10457 21.8954 4 23 4Z" fill="black"/>
<path fill-rule="evenodd" clip-rule="evenodd" d="M50 7C50 7.55228 50.4477 8 51 8C51.5523 8 52 7.55228 52 7V6C52 5.44772 51.5523 5 51 5C50.4477 5 50 5.44772 50 6V7Z" fill="black"/>
<path fill-rule="evenodd" clip-rule="evenodd" d="M51 0C50.4477 0 50 0.447715 50 1V2C50 2.55228 50.4477 3 51 3C51.5523 3 52 2.55228 52 2V1C52 0.447715 51.5523 0 51 0Z" fill="black"/>
<path fill-rule="evenodd" clip-rule="evenodd" d="M54 3H53C52.4477 3 52 3.44772 52 4C52 4.55228 52.4477 5 53 5H54C54.5523 5 55 4.55228 55 4C55 3.44772 54.5523 3 54 3Z" fill="black"/>
<path fill-rule="evenodd" clip-rule="evenodd" d="M49 3H48C47.4477 3 47 3.44772 47 4C47 4.55228 47.4477 5 48 5H49C49.5523 5 50 4.55228 50 4C50 3.44772 49.5523 3 49 3Z" fill="black"/>
<path fill-rule="evenodd" clip-rule="evenodd" d="M45 17C45 17.5523 44.5523 18 44 18H38.979C38.4267 18 37.979 17.5523 37.979 17V11.979C37.979 11.4267 38.4267 10.979 38.979 10.979H44C44.5523 10.979 45 11.4267 45 11.979V17ZM43 12.979H39.979V16H43V12.979Z" fill="black"/>
<path fill-rule="evenodd" clip-rule="evenodd" d="M25.257 29.669C25.6265 30.0792 26.2586 30.1123 26.669 29.743L36.669 20.743C37.0664 20.3707 37.0928 19.7488 36.7284 19.3441C36.364 18.9394 35.7428 18.9006 35.331 19.257L25.331 28.257C24.9207 28.6265 24.8876 29.2586 25.257 29.669Z" fill="black"/>
<path fill-rule="evenodd" clip-rule="evenodd" d="M56 25V24C56 23.4477 55.5523 23 55 23C54.4477 23 54 23.4477 54 24V25C54 25.5523 54.4477 26 55 26C55.5523 26 56 25.5523 56 25Z" fill="black"/>
<path fill-rule="evenodd" clip-rule="evenodd" d="M57.122 23.535L57.829 24.242C58.2214 24.621 58.8451 24.6156 59.2308 24.2299C59.6166 23.8441 59.622 23.2204 59.243 22.828L58.536 22.121C58.1436 21.7421 57.5199 21.7475 57.1342 22.1332C56.7485 22.519 56.743 23.1427 57.122 23.535Z" fill="black"/>
<path fill-rule="evenodd" clip-rule="evenodd" d="M60 19H59C58.4477 19 58 19.4477 58 20C58 20.5523 58.4477 21 59 21H60C60.5523 21 61 20.5523 61 20C61 19.4477 60.5523 19 60 19Z" fill="black"/>
<path fill-rule="evenodd" clip-rule="evenodd" d="M57.8289 18.172C58.0941 18.172 58.3484 18.0666 58.5359 17.879L59.2429 17.172C59.6219 16.7796 59.6165 16.1559 59.2307 15.7702C58.845 15.3845 58.2213 15.379 57.8289 15.758L57.1219 16.465C56.836 16.751 56.7505 17.181 56.9052 17.5547C57.06 17.9283 57.4245 18.1719 57.8289 18.172Z" fill="black"/>
<path fill-rule="evenodd" clip-rule="evenodd" d="M55 14C54.4477 14 54 14.4477 54 15V16C54 16.5523 54.4477 17 55 17C55.5523 17 56 16.5523 56 16V15C56 14.4477 55.5523 14 55 14Z" fill="black"/>
<path fill-rule="evenodd" clip-rule="evenodd" d="M52.171 15.758C51.7787 15.379 51.1549 15.3845 50.7692 15.7702C50.3835 16.1559 50.3781 16.7796 50.757 17.172L51.464 17.879C51.8564 18.258 52.4801 18.2526 52.8658 17.8668C53.2516 17.4811 53.257 16.8574 52.878 16.465L52.171 15.758Z" fill="black"/>
<path fill-rule="evenodd" clip-rule="evenodd" d="M12.1439 3.64402C12.5204 3.69874 12.8332 3.96231 12.9509 4.32402C13.069 4.68561 12.9718 5.0829 12.6999 5.34902L10.5759 7.41902L11.0759 10.342C11.1402 10.7172 10.986 11.0963 10.678 11.32C10.3701 11.5437 9.96184 11.5731 9.62495 11.396L6.99995 10.016L4.37495 11.4C4.03729 11.5785 3.62748 11.549 3.31882 11.3241C3.01016 11.0992 2.85655 10.7181 2.92295 10.342L3.42295 7.41902L1.29995 5.34902C1.02772 5.08303 0.930084 4.68557 1.04808 4.32373C1.16608 3.96188 1.47925 3.69839 1.85595 3.64402L4.79095 3.21702L6.10595 0.558015C6.29305 0.240316 6.63425 0.0452881 7.00295 0.0452881C7.37165 0.0452881 7.71284 0.240316 7.89995 0.558015L9.20895 3.21702L12.1439 3.64402ZM8.51195 7.23802C8.4568 6.91392 8.56448 6.58343 8.79995 6.35402L9.84995 5.33102L8.39995 5.12002C8.07459 5.07241 7.79344 4.8679 7.64795 4.57302L6.99995 3.26002L6.35295 4.57302C6.20726 4.86816 5.92567 5.07271 5.59995 5.12002L4.14895 5.33102L5.19995 6.35402C5.43328 6.58419 5.53902 6.91409 5.48295 7.23702L5.23495 8.68202L6.53495 8.00002C6.82609 7.8471 7.17381 7.8471 7.46495 8.00002L8.75995 8.68302L8.51195 7.23802Z" fill="black"/>
<path fill-rule="evenodd" clip-rule="evenodd" d="M57.2061 49.5071L57.6181 50.1251H57.6221C60.8176 52.0839 61.8961 56.2166 60.0651 59.4871C59.8964 59.8092 59.5663 60.0143 59.2028 60.0229C58.8393 60.0315 58.4998 59.8421 58.3161 59.5283C58.1325 59.2145 58.1336 58.8258 58.3191 58.5131C59.2492 56.8836 59.1641 54.8654 58.1001 53.3201C58.0846 54.2143 57.8625 55.0929 57.4511 55.8871C56.3741 57.8159 53.9374 58.5065 52.0086 57.4296C50.0797 56.3526 49.3891 53.9159 50.4661 51.9871C51.3438 50.5401 52.8005 49.5397 54.4661 49.2401C52.485 46.9896 49.791 45.4878 46.8351 44.9861C46.3019 44.8836 45.9479 44.3744 46.0375 43.839C46.1271 43.3035 46.6276 42.9374 47.1651 43.0141C51.2634 43.7034 54.896 46.0524 57.2061 49.5071ZM53.9885 55.9445C54.7051 55.9328 55.3608 55.5386 55.7071 54.9111C56.3111 53.8291 56.2661 51.7871 55.4221 51.3161C55.2681 51.2353 55.0959 51.1953 54.9221 51.2001C53.7996 51.3481 52.8042 51.9957 52.2141 52.9621C51.8619 53.5863 51.8708 54.3513 52.2372 54.9673C52.6037 55.5833 53.2718 55.9561 53.9885 55.9445Z" fill="black"/>
</svg>
