<?xml version="1.0" encoding="UTF-8" standalone="no"?>
<svg
   xmlns:dc="http://purl.org/dc/elements/1.1/"
   xmlns:cc="http://creativecommons.org/ns#"
   xmlns:rdf="http://www.w3.org/1999/02/22-rdf-syntax-ns#"
   xmlns:svg="http://www.w3.org/2000/svg"
   xmlns="http://www.w3.org/2000/svg"
   id="svg8"
   version="1.1"
   viewBox="0 0 23.8125 4.4979167"
   height="4.4979167mm"
   width="23.8125mm">
  <defs
     id="defs2" />
  <metadata
     id="metadata5">
    <rdf:RDF>
      <cc:Work
         rdf:about="">
        <dc:format>image/svg+xml</dc:format>
        <dc:type
           rdf:resource="http://purl.org/dc/dcmitype/StillImage" />
        <dc:title></dc:title>
      </cc:Work>
    </rdf:RDF>
  </metadata>
  <g
     transform="translate(203.47876,-102.72024)"
     id="layer1">
    <g
       transform="matrix(0.26458333,0,0,0.26458333,-198.71626,102.72024)"
       id="g86"
       style="fill:none">
      <path
         style="clip-rule:evenodd;fill:#ff6b61;fill-rule:evenodd"
         d="M 3.43543,17 8.98971,13.363 14.5646,17 12.7954,10.625 18,6.4976 11.3349,6.19111 8.98971,0 6.64457,6.19111 0,6.4976 5.20457,10.625 Z"
         id="path75" />
    </g>
    <g
       transform="matrix(0.26458333,0,0,0.26458333,-193.95376,102.72024)"
       id="g86-8"
       style="fill:none">
      <path
         style="clip-rule:evenodd;fill:#ff6b61;fill-rule:evenodd"
         d="M 3.43543,17 8.98971,13.363 14.5646,17 12.7954,10.625 18,6.4976 11.3349,6.19111 8.98971,0 6.64457,6.19111 0,6.4976 5.20457,10.625 Z"
         id="path75-8" />
    </g>
    <g
       transform="matrix(0.26458333,0,0,0.26458333,-189.19126,102.72024)"
       id="g86-9"
       style="fill:none">
      <path
         style="clip-rule:evenodd;fill:#ff6b61;fill-rule:evenodd"
         d="M 3.43543,17 8.98971,13.363 14.5646,17 12.7954,10.625 18,6.4976 11.3349,6.19111 8.98971,0 6.64457,6.19111 0,6.4976 5.20457,10.625 Z"
         id="path75-81" />
    </g>
    <g
       transform="matrix(0.26458333,0,0,0.26458333,-203.47876,102.72024)"
       id="g86-7"
       style="fill:none">
      <path
         style="clip-rule:evenodd;fill:#ff6b61;fill-rule:evenodd"
         d="M 3.43543,17 8.98971,13.363 14.5646,17 12.7954,10.625 18,6.4976 11.3349,6.19111 8.98971,0 6.64457,6.19111 0,6.4976 5.20457,10.625 Z"
         id="path75-9" />
    </g>
    <g
       transform="matrix(0.26458333,0,0,0.26458333,-184.42876,102.72024)"
       id="g86-0"
       style="fill:none">
      <path
         style="clip-rule:evenodd;fill:#ff6b61;fill-rule:evenodd"
         d="M 3.43543,17 8.98971,13.363 14.5646,17 12.7954,10.625 18,6.4976 11.3349,6.19111 8.98971,0 6.64457,6.19111 0,6.4976 5.20457,10.625 Z"
         id="path75-4" />
    </g>
  </g>
</svg>
